{
  "module": {
    "name": "idioms",
    "version": "x.x.x",
    "description": "Zeigt in zeitlich fetgelegten Abständen Zitate und Sprüche auf dem Spiegel an.",
    "module_url": "https://glancr.de/profiles/gorbo/idioms",
    "download_url": "https://www.glancr.de/profiles/gorbo/idioms/idioms.zip",
    "category": "Unterhaltung",
    "last_update": "<timestamp>"
  },
  "creator": {
    "name": "Mattes Angelus",
    "contact": "ma@glancr.de",
    "website": "https://glancr.de",
    "profile": "https://glancr.de/entwickler/mattes-angelus/"
  }
}
