<?xml version="1.0" encoding="utf-8"?>
<!-- Generator: Adobe Illustrator 15.1.0, SVG Export Plug-In . SVG Version: 6.00 Build 0)  -->
<!DOCTYPE svg PUBLIC "-//W3C//DTD SVG 1.1//EN" "http://www.w3.org/Graphics/SVG/1.1/DTD/svg11.dtd">
<svg version="1.1" id="Ebene_1" xmlns="http://www.w3.org/2000/svg" xmlns:xlink="http://www.w3.org/1999/xlink" x="0px" y="0px"
	 width="100px" height="100px" viewBox="0 0 100 100" enable-background="new 0 0 100 100" xml:space="preserve">
<g>
	<g>
		<path fill="#1B171B" d="M24.67,68.831h-1.377l0.085-3.281l-0.085-7.616h1.394l-0.085,7.497L24.67,68.831z"/>
		<path fill="#1B171B" d="M36.042,59.192c0.827,0.884,1.241,2.153,1.241,3.808c0,1.915-0.448,3.383-1.343,4.403
			c-0.896,1.02-2.182,1.529-3.859,1.529c-1.11,0-2.289-0.033-3.536-0.102h-0.017l0.085-3.281l-0.085-7.616h0.017l3.928-0.067
			C34.025,57.866,35.215,58.308,36.042,59.192z M34.963,66.663c0.617-0.753,0.927-1.878,0.927-3.374c0-2.856-1.174-4.284-3.52-4.284
			c-0.714,0-1.536,0.023-2.465,0.068l-0.068,6.357l0.052,2.262c0.793,0.067,1.598,0.102,2.414,0.102
			C33.458,67.794,34.345,67.417,34.963,66.663z"/>
		<path fill="#1B171B" d="M41.568,68.831h-1.377l0.085-3.281l-0.085-7.616h1.394L41.5,65.431L41.568,68.831z"/>
		<path fill="#1B171B" d="M52.812,59.209c0.799,0.918,1.199,2.238,1.199,3.961c0,1.848-0.426,3.275-1.275,4.284
			s-2.057,1.513-3.622,1.513c-1.473,0-2.612-0.476-3.417-1.428s-1.206-2.307-1.206-4.063c0-1.812,0.422-3.207,1.266-4.182
			c0.845-0.975,2.055-1.462,3.63-1.462C50.872,57.832,52.014,58.291,52.812,59.209z M45.885,63.306c0,3.016,1.104,4.522,3.315,4.522
			c2.266,0,3.399-1.474,3.399-4.42c0-1.507-0.273-2.627-0.824-3.357c-0.549-0.731-1.385-1.097-2.507-1.097
			C47.013,58.954,45.885,60.405,45.885,63.306z"/>
		<path fill="#1B171B" d="M66.473,68.831l-0.256-3.315l-0.578-5.423H65.52l-3.025,7.48h-1.123l-2.873-7.48h-0.135l-0.578,5.321
			l-0.289,3.417H56.34l1.139-10.897h1.547l0.561,1.666l2.363,6.205h0.104l2.48-6.307l0.562-1.564h1.529l1.07,10.897H66.473z"/>
		<path fill="#1B171B" d="M76.383,58.359l-0.221,1.309l-0.238,0.068c-0.68-0.521-1.393-0.782-2.141-0.782
			c-0.42,0-0.785,0.085-1.098,0.255c-0.311,0.17-0.549,0.391-0.713,0.663s-0.248,0.556-0.248,0.85c0,0.307,0.094,0.576,0.281,0.808
			c0.188,0.232,0.422,0.434,0.705,0.604s0.67,0.374,1.156,0.612c0.613,0.283,1.105,0.547,1.479,0.79
			c0.375,0.244,0.695,0.553,0.961,0.927s0.4,0.827,0.4,1.36c0,0.566-0.154,1.088-0.459,1.563c-0.307,0.477-0.738,0.856-1.293,1.14
			s-1.189,0.425-1.904,0.425c-1.043,0-2.018-0.255-2.924-0.766l0.17-1.394l0.188-0.085c0.396,0.386,0.836,0.672,1.318,0.858
			c0.48,0.188,0.943,0.28,1.385,0.28c0.43,0,0.812-0.085,1.148-0.255c0.334-0.17,0.588-0.396,0.764-0.68s0.264-0.584,0.264-0.901
			c0-0.476-0.182-0.858-0.543-1.147c-0.363-0.289-0.914-0.604-1.65-0.943c-0.6-0.295-1.082-0.558-1.445-0.79
			c-0.361-0.232-0.674-0.533-0.934-0.901c-0.262-0.368-0.391-0.818-0.391-1.352c0-0.555,0.148-1.065,0.449-1.53
			c0.301-0.464,0.721-0.83,1.258-1.096c0.539-0.267,1.154-0.4,1.846-0.4C74.734,57.849,75.545,58.02,76.383,58.359z"/>
	</g>
	<g>
		<path fill="#1B171B" d="M39.943,43.356c0.252,0.261,0.379,0.626,0.379,1.094c0,0.485-0.136,0.873-0.405,1.161
			c-0.271,0.287-0.64,0.432-1.107,0.432s-0.833-0.135-1.094-0.405c-0.261-0.27-0.391-0.639-0.391-1.106s0.139-0.847,0.418-1.135
			c0.279-0.287,0.662-0.432,1.147-0.432C39.34,42.965,39.691,43.096,39.943,43.356z"/>
		<path fill="#1B171B" d="M46.125,43.356c0.252,0.261,0.379,0.626,0.379,1.094c0,0.485-0.136,0.873-0.405,1.161
			c-0.271,0.287-0.64,0.432-1.107,0.432s-0.833-0.135-1.094-0.405c-0.261-0.27-0.391-0.639-0.391-1.106s0.139-0.847,0.418-1.135
			c0.279-0.287,0.662-0.432,1.147-0.432C45.523,42.965,45.874,43.096,46.125,43.356z"/>
		<path fill="#1B171B" d="M52.309,43.356c0.252,0.261,0.379,0.626,0.379,1.094c0,0.485-0.137,0.873-0.406,1.161
			c-0.27,0.287-0.639,0.432-1.107,0.432c-0.467,0-0.833-0.135-1.093-0.405c-0.261-0.27-0.391-0.639-0.391-1.106
			s0.139-0.847,0.418-1.135c0.279-0.287,0.662-0.432,1.148-0.432C51.705,42.965,52.057,43.096,52.309,43.356z"/>
		<path fill="#1B171B" d="M61.865,43.356c0.252,0.261,0.379,0.626,0.379,1.094c0,0.485-0.135,0.873-0.406,1.161
			c-0.27,0.287-0.639,0.432-1.107,0.432c-0.467,0-0.832-0.135-1.092-0.405c-0.262-0.27-0.393-0.639-0.393-1.106
			s0.145-0.847,0.432-1.135c0.289-0.287,0.666-0.432,1.135-0.432C61.262,42.965,61.613,43.096,61.865,43.356z M61.92,39.779
			l-1.594,0.216l-0.297-0.324l-0.08-11.232l0.242-0.323l2.16-0.136l0.324,0.352L61.92,39.779z"/>
	</g>
</g>
</svg>
